individual2.Rmd
…
#Part two: Tidying (1)
defClean <- defClean %>% gather(key=Statistic, value=Count, 3:11)
defClean

## # A tibble: 4,014 x 4
##    Name           Opponent_Opponent Statistic    Count
##    <fct>          <fct>             <chr>        <dbl>
##  1 Eisworth, Greg Iowa              Tackles_Solo     3
##  2 Eisworth, Greg Oklahoma          Tackles_Solo     6
##  3 Eisworth, Greg Akron             Tackles_Solo     7
##  4 Eisworth, Greg TCU               Tackles_Solo     6
##  5 Eisworth, Greg Oklahoma State    Tackles_Solo     3
##  6 Eisworth, Greg West Virginia     Tackles_Solo     5
##  7 Eisworth, Greg Texas Tech        Tackles_Solo     3
##  8 Eisworth, Greg Kansas            Tackles_Solo     7
##  9 Eisworth, Greg Baylor            Tackles_Solo     2
## 10 Eisworth, Greg Texas             Tackles_Solo     9
## #  with 4,004 more rows
…
#Part two: Tidying(2)
#1. 
bioClean

## # A tibble: 123 x 9
##    Name    Position   feet inches Weight Class  Hometown  Highschool Height
##    <fct>   <chr>     <int>  <int>  <dbl> <chr>  <chr>     <chr>       <dbl>
##  1 Akers, Wide Rec     6      0    192 Redsh Cedar Ra Washington   183.
##  2 Allen, Tight End     6      7    240 Redsh Nixa, Mo. Nixa         201.
##  3 Alt, G Offensiv     6      2    290 Redsh Cedar Ra Washington   188.
##  4 Anders Tight End     6      4    250 Redsh League C Clear Fal   193.
##  5 Assall Placekic     6      0    191 Redsh Napervil Central      183.
##  6 Austin Lineback     5     11    205 Redsh Walnut,  Bishop Am   180.
##  7 Azunna Defensiv     6      0    192 Redsh Grand Pr Lake Ridge   183.
##  8 Bailey Defensiv     6      3    224 Redsh Clarksda Clarksdale   190.
##  9 Bailey Defensiv     6      2    251 Junior Jacksonv Raines       188.
## 10 Bailey Defensiv     6      2    284 Redsh Jacksonv Raines       188.
## #  with 113 more rows
…
