Lab4
…
print(defClean)

## # A tibble: 446 x 11
##    Name  Opponent_Oppone Tackles_Solo Tackles_ASST Tackles_TFL
##    <fct> <fct>                   <dbl>        <dbl>       <dbl>
##  1 Eisw Iowa                        3            3           0
##  2 Eisw Oklahoma                    6            8           1
##  3 Eisw Akron                       7            2           1
##  4 Eisw TCU                         6            3           0
##  5 Eisw Oklahoma State              3            0           1
##  6 Eisw West Virginia               5            3           1
##  7 Eisw Texas Tech                  3            2           0
##  8 Eisw Kansas                      7            1           0
##  9 Eisw Baylor                      2            4           0
## 10 Eisw Texas                       9            3           0
## #  with 436 more rows, and 6 more variables: Tackles_Sack <dbl>,
## #   Turnover_FF <dbl>, Turnover_FR <dbl>, Turnover_INT <dbl>,
## #   Pass_QBH <dbl>, Pass_PB <dbl>
…
print(offClean)

## # A tibble: 168 x 12
##    Name  Opponent_Oppone Receiving_REC Receiving_YDS Receiving_TD
##    <fct> <fct>                    <dbl>         <dbl>        <dbl>
##  1 Jone Iowa                         1            31            0
##  2 Jone Oklahoma                     9            66            0
##  3 Jone Akron                        6            39            0
##  4 Jone TCU                          3            23            0
##  5 Jone Oklahoma State               6            37            1
##  6 Jone West Virginia                1            32            1
##  7 Jone Texas Tech                   1             4            0
##  8 Jone Kansas                       4            31            0
##  9 Jone Baylor                       4            39            1
## 10 Jone Texas                        0             0            0
## #  with 158 more rows, and 7 more variables: Rushing_ATT <dbl>,
## #   Rushing_YDS <dbl>, Rushing_TD <dbl>, `Passing_CMP-ATT` <dbl>,
## #   Passing_YDS <dbl>, Passing_TD <dbl>, Passing_INT <dbl>
…
## Classes 'tbl_df', 'tbl' and 'data.frame':    123 obs. of  9 variables:
##  $ Name      : chr  "Akers, Landen" "Allen, Chase" "Alt, Gerry" "Anderson, Cole" ...
##  $ Position  : chr  "Wide Receiver" "Tight End" "Offensive Line" "Tight End" ...
##  $ Feet      : int  6 6 6 6 6 5 6 6 6 6 ...
##  $ Inches    : int  0 7 2 4 0 11 0 3 2 2 ...
##  $ Weight    : num  192 240 290 250 191 205 192 224 251 284 ...
##  $ Class     : chr  "Redshirt Sophomore" "Redshirt Sophomore" "Redshirt Freshman" "Redshirt Senior" ...
##  $ Hometown  : chr  "Cedar Rapids, Iowa" "Nixa, Mo." "Cedar Rapids, Iowa" "League City, Texas" ...
##  $ Highschool: chr  "Washington" "Nixa" "Washington" "Clear Falls" ...
##  $ Height    : num  72 79 74 76 72 71 72 75 74 74 ...

print(bioClean)

## # A tibble: 123 x 9
##    Name    Position   Feet Inches Weight Class  Hometown  Highschool Height
##    <chr>   <chr>     <int>  <int>  <dbl> <chr>  <chr>     <chr>       <dbl>
##  1 Akers, Wide Rec     6      0    192 Redsh Cedar Ra Washington     72
##  2 Allen, Tight End     6      7    240 Redsh Nixa, Mo. Nixa           79
##  3 Alt, G Offensiv     6      2    290 Redsh Cedar Ra Washington     74
##  4 Anders Tight End     6      4    250 Redsh League C Clear Fal     76
##  5 Assall Placekic     6      0    191 Redsh Napervil Central        72
##  6 Austin Lineback     5     11    205 Redsh Walnut,  Bishop Am     71
##  7 Azunna Defensiv     6      0    192 Redsh Grand Pr Lake Ridge     72
##  8 Bailey Defensiv     6      3    224 Redsh Clarksda Clarksdale     75
##  9 Bailey Defensiv     6      2    251 Junior Jacksonv Raines         74
## 10 Bailey Defensiv     6      2    284 Redsh Jacksonv Raines         74
## #  with 113 more rows

defClean_Tidy <- defClean %>% gather(key = Statistic, value = Count, 3:11)
print(defClean_Tidy)

## # A tibble: 4,014 x 4
##    Name           Opponent_Opponent Statistic    Count
##    <fct>          <fct>             <chr>        <dbl>
##  1 Eisworth, Greg Iowa              Tackles_Solo     3
##  2 Eisworth, Greg Oklahoma          Tackles_Solo     6
##  3 Eisworth, Greg Akron             Tackles_Solo     7
##  4 Eisworth, Greg TCU               Tackles_Solo     6
##  5 Eisworth, Greg Oklahoma State    Tackles_Solo     3
##  6 Eisworth, Greg West Virginia     Tackles_Solo     5
##  7 Eisworth, Greg Texas Tech        Tackles_Solo     3
##  8 Eisworth, Greg Kansas            Tackles_Solo     7
##  9 Eisworth, Greg Baylor            Tackles_Solo     2
## 10 Eisworth, Greg Texas             Tackles_Solo     9
## #  with 4,004 more rows
…
Teams <- c("West Virginia", "Kansas State")
defClean_Tidy_Teams <- defClean_Tidy %>% filter(Opponent_Opponent %in% Teams) %>% spread(key = Opponent_Opponent, value = Count) %>% filter(Statistic == "Tackles_Solo")

print(defClean_Tidy_Teams)

## # A tibble: 37 x 4
##    Name               Statistic    `Kansas State` `West Virginia`
##    <fct>              <chr>                 <dbl>           <dbl>
##  1 Akers, Landen      Tackles_Solo              1               0
##  2 Azunna, Arnold     Tackles_Solo              0              NA
##  3 Bailey, Cordarrius Tackles_Solo              0               0
##  4 Bailey, JaQuan     Tackles_Solo              0               2
##  5 Benton, Spencer    Tackles_Solo              0               1
##  6 Butler, Hakeem     Tackles_Solo              0               1
##  7 Eisworth, Greg     Tackles_Solo              3               5
##  8 Francis, Chris     Tackles_Solo              0               0
##  9 Grant, Jatairis    Tackles_Solo              1               0
## 10 Greene, Conner     Tackles_Solo              0              NA
## #  with 27 more rows
…
#defClean %>% select(Name, Opponent_Opponent, Tackles_Solo) %>% spread(Opponent_Opponent, Tackles_Solo) %>% ggplot(aes(x = `West Virginia`, y = `Kansas State`)) + geom_point()

#str(bioClean)

bioClean_Tidy <- bioClean %>% separate(Hometown, c("City", "State"), ",", convert = TRUE )
print(bioClean_Tidy)

## # A tibble: 123 x 10
##    Name   Position   Feet Inches Weight Class City  State Highschool Height
##    <chr>  <chr>     <int>  <int>  <dbl> <chr> <chr> <chr> <chr>       <dbl>
##  1 Akers Wide Rec     6      0    192 Reds Ceda " Io Washington     72
##  2 Allen Tight End     6      7    240 Reds Nixa  " Mo Nixa           79
##  3 Alt,  Offensiv     6      2    290 Reds Ceda " Io Washington     74
##  4 Ander Tight End     6      4    250 Reds Leag " Te Clear Fal     76
##  5 Assal Placekic     6      0    191 Reds Nape " Il Central        72
##  6 Austi Lineback     5     11    205 Reds Waln " Ca Bishop Am     71
##  7 Azunn Defensiv     6      0    192 Reds Gran " Te Lake Ridge     72
##  8 Baile Defensiv     6      3    224 Reds Clar " Mi Clarksdale     75
##  9 Baile Defensiv     6      2    251 Juni Jack " Fl Raines         74
## 10 Baile Defensiv     6      2    284 Reds Jack " Fl Raines         74
## #  with 113 more rows
…
